<?xml version="1.0" encoding="iso-8859-1"?>
<!-- Generator: Adobe Illustrator 19.0.0, SVG Export Plug-In . SVG Version: 6.00 Build 0)  -->
<svg xmlns="http://www.w3.org/2000/svg" xmlns:xlink="http://www.w3.org/1999/xlink" version="1.1" id="Layer_1" x="0px"
     y="0px" viewBox="0 0 512 512" style="enable-background:new 0 0 512 512;" xml:space="preserve">
<rect style="fill:#FFD250;" width="512" height="512"/>
    <path style="fill:#963C3C;"
          d="M185.379,53.895v404.211c0,7.441,3.952,13.474,8.828,13.474H476.69c4.875,0,8.828-6.032,8.828-13.474  V53.895c0-7.441-3.952-13.474-8.828-13.474H194.207C189.332,40.421,185.379,46.453,185.379,53.895z"/>
    <path style="fill:#5AA587;"
          d="M92.69,40.421H37.389c-6.023,0-10.906,4.883-10.906,10.906v409.346  c0,6.023,4.883,10.906,10.906,10.906H92.69V40.421z"/>
    <path style="fill:#FF7350;"
          d="M147.991,40.421H92.69v431.158h55.301c6.023,0,10.906-4.883,10.906-10.906V51.327  C158.897,45.304,154.014,40.421,147.991,40.421z"/>
    <g>
	<path style="fill:#FFD250;"
          d="M393.059,321.878c-0.283-1.89,1.38-4.329,3.95-7.835c0.93-1.267,2.273-3.103,2.635-3.982   c-0.24-0.017-0.569,0.002-0.813,0.015c-1.422,0.069-3.573,0.167-5.453-1.92c-0.736-0.818-1.09-1.841-1.021-2.958   c0.14-2.27,1.995-4.503,3.144-5.683c-2.966-2.082-5.799-4.246-8.411-6.859c-4.992-4.994-10.687-7.398-16.974-7.267   c-0.582,6.254,2.64,10.367,6.08,14.695c1.014,1.274,2.025,2.548,2.942,3.877c4.525,6.551,3.578,19.198,3.005,20.537   c-0.65,1.518-4.228,4.886-9.136,4.23c-2.257-0.297-4.856,0.462-6.492,1.893c-0.704,0.616-1.544,1.64-1.544,3.013   c0,0.069,0.005,0.417,0.113,0.481c0.66,0.398,3.123-0.38,4.886-1.333c0.486-0.265,1.092-0.187,1.502,0.194   c3.469,3.248,6.951,0.442,7.336,0.111c0.476-0.407,1.178-0.42,1.662-0.03c3.55,2.861,7.251-0.267,7.408-0.402   c0.435-0.376,1.075-0.422,1.559-0.105c1.54,1.011,2.949,1.299,4.206,0.867c1.098-0.381,1.68-1.206,1.748-1.405   c0.032-0.525-0.673-3.233-1.14-5.024C393.759,325.11,393.253,323.167,393.059,321.878z"/>
        <path style="fill:#FFD250;"
              d="M431.508,202.117c-1.07-0.081-1.844,0.15-2.374,0.675c-0.972,0.96-0.892,2.691-0.891,2.708   c0.02,0.385-0.132,0.761-0.413,1.022c-0.283,0.262-0.663,0.395-1.048,0.339c-1.923-0.251-4.766-2.281-10.043-6.148   c-8.383-6.145-21.054-15.43-33.142-16.959c-14.05-1.785-26.555,2.698-29.732,10.641c-3.538,8.844,3.98,16.902,4.056,16.983   c0.383,0.405,0.466,1.009,0.204,1.5c-1.982,3.734-0.481,6.49,0.872,8c0.423-1.247,1.058-2.099,1.932-2.622   c2.109-1.26,4.862-0.218,8.67,1.225c2.251,0.85,4.8,1.815,7.774,2.544c7.626,1.869,16.927,0.202,25.133-1.267   c2.9-0.52,5.697-1.019,8.299-1.351c6.544-0.833,13.106,2.067,14.909,6.614c0.874,2.202,1.341,6.622-5.345,11.484   c-12.023,8.746-66.851,4.71-70.081,4.463c-0.072,0.007-0.142,0.013-0.294,0.024c1.199,1.346,2.605,2.66,3.218,2.823   c0.624,0.167,1.031,0.768,0.952,1.41c-0.079,0.641-0.619,1.127-1.265,1.137l-5.616,0.086l0.516,5.406   c0.037,0.398-0.111,0.793-0.403,1.066c-0.292,0.275-0.697,0.39-1.088,0.337c-0.219-0.035-5.068-0.812-8.42-2.674l-6.344,4.002   c-0.209,0.132-0.45,0.199-0.692,0.199c-0.14,0-0.282-0.022-0.417-0.069c-0.371-0.127-0.665-0.412-0.8-0.779l-2.421-6.581   l-2.87,5.741c-0.209,0.42-0.629,0.693-1.097,0.715c-0.466,0.049-0.911-0.208-1.161-0.606l-2.46-3.921   c-1.125,1.405-2.929,3.452-4.775,4.729c-0.337,0.236-0.764,0.294-1.156,0.162c-0.39-0.133-0.693-0.444-0.817-0.835l-1.289-4.069   c-1.141,1.442-2.79,3.354-4.537,4.786c-0.373,0.31-0.891,0.383-1.338,0.187c-0.445-0.194-0.746-0.621-0.776-1.105l-0.415-6.541   c-1.476,0.752-3.487,1.733-4.601,2.08c-0.506,0.159-1.065-0.01-1.397-0.427c-0.334-0.417-0.378-0.994-0.111-1.456   c1.998-3.47,3.833-7.803,3.971-9.958c-1.325,1.587-3.181,3.105-5.254,4.792c-4.41,3.59-9.898,8.056-13.937,15.872   c-2.821,5.463-4.847,14.992-1.274,23.876c3.049,7.579,9.613,13.234,19.446,16.867c-0.329-1.435-0.581-2.844-0.607-4.168   c-0.128-6.73,1.269-12.873,1.329-13.131c0.16-0.698,0.854-1.139,1.552-0.97c0.698,0.16,1.132,0.855,0.972,1.552   c-0.013,0.061-1.383,6.101-1.262,12.498c0.061,3.131,1.407,6.997,2.71,10.733c1.729,4.969,3.519,10.104,2.742,14.427   c-1.06,5.876-8.375,7.366-15.166,6.232c-1.93-0.324-3.686,0.152-4.948,1.329c-1.281,1.194-1.937,3.025-1.756,4.898   c0.086,0.882,0.415,1.06,0.523,1.119c0.817,0.442,2.738-0.159,3.777-0.702c0.523-0.275,1.169-0.162,1.569,0.285   c2.723,3.05,6.391,0.007,6.544-0.127c0.526-0.444,1.311-0.403,1.783,0.101c1.026,1.093,2.112,1.638,3.322,1.665   c2.212,0.135,4.311-1.834,4.333-1.851c0.383-0.373,0.957-0.469,1.441-0.25c4.273,1.955,6.516,0.82,6.608,0.766   c3.708-3.162,1.566-10.664,1.544-10.74c-0.101-0.342-0.056-0.712,0.125-1.019c0.181-0.309,0.481-0.528,0.828-0.609   c5.195-1.191,8.098-4.525,9.502-6.735c-2.566-0.025-4.606-0.925-5.807-2.802c-1.935-3.03-1.006-7.594,2.369-11.626   c5.773-6.899,9.303-20.86,8.773-26.545c-0.066-0.712,0.459-1.343,1.171-1.41c0.693-0.071,1.343,0.459,1.41,1.171   c0.462,4.98-1.782,15.309-5.881,23.099c5.192-1.436,9.931-3.538,14.875-5.794c4.915-2.242,9.998-4.56,16.105-6.474   c10.324-3.233,19.429-0.992,27.073,6.656c3.703,3.703,7.747,6.416,12.429,9.559c2.057,1.38,4.196,2.816,6.416,4.415   c6.018,4.333,5.912,7.95,5.799,11.78c-0.034,1.167-0.071,2.374,0.061,3.681c0.621,6.219-4.324,7.202-6.701,7.675   c-0.326,0.064-0.631,0.125-0.898,0.191c-0.336,0.084-0.737,0.167-1.181,0.256c-2.414,0.489-6.062,1.23-6.958,4.319   c-0.162,0.553-0.1,0.747-0.1,0.747c0.381,0.174,2.357-0.275,3.931-0.99c0.334-0.154,0.714-0.155,1.049-0.012   c0.336,0.143,0.596,0.423,0.715,0.769c0.459,1.345,1.174,1.574,1.409,1.65c1.631,0.509,4.301-0.992,5.105-1.564   c0.501-0.353,1.176-0.315,1.628,0.098c1.338,1.221,2.575,1.76,3.686,1.61c1.488-0.208,2.391-1.608,2.401-1.623   c0.214-0.346,0.579-0.572,0.985-0.609c0.412-0.022,0.806,0.123,1.08,0.423c0.003,0.005,1.137,1.201,3.457,1.935   c1.522,0.476,1.905-0.073,2.031-0.255c0.643-0.938,0.412-3.332-0.842-4.898c-1.643-2.055-2.406-5.179-1.944-7.96   c0.425-2.559,1.805-4.646,3.988-6.037c4-2.546,4.915-5.289,4.658-5.812c-0.074-0.035-0.508-0.093-0.855-0.138   c-1.785-0.236-4.773-0.631-7.845-6.305c-2.713-5.007-0.088-12.935,2.951-22.117c1.542-4.651,3.135-9.463,4.117-14.182   c2.72-13.053-5.827-23.417-5.913-23.52c-0.442-0.526-0.396-1.308,0.106-1.778c5.999-5.628,8.579-10.847,7.663-15.508   c-0.953-4.861-5.66-8.258-9.401-9.691c-4.661-1.787-13.166-0.771-21.394,0.208c-6.875,0.817-13.374,1.591-17.568,0.715   c-2.161-0.454-3.744-1.478-4.704-3.044c-0.791-1.291-0.985-2.704-0.977-3.808c-2.084,0.783-3.491,2.713-3.508,2.737   c-0.238,0.332-0.621,0.535-1.029,0.542c-0.511-0.02-0.801-0.179-1.049-0.501c-1.06-1.37-1.486-2.882-1.264-4.494   c0.285-2.085,1.631-3.879,2.735-5.036c-4.823-1.694-8.52,2.348-8.69,2.541c-0.422,0.467-1.115,0.567-1.648,0.245   c-2.327-1.431-3.769-4.238-3.678-7.152c0.088-2.752,1.507-5.058,3.892-6.325c1.635-0.867,3.202-1.027,4.656-0.479   c1.383,0.521,2.354,1.598,2.964,2.51c1.765-2.013,1.913-5.487,1.913-5.527c0.01-0.348,0.157-0.677,0.412-0.913   c0.253-0.236,0.606-0.385,0.938-0.348c3.069,0.127,5.451,1.235,7.079,3.293c2.225,2.816,2.435,6.727,2.303,9.148   c4.901-2.502,4.28-8.277,4.248-8.547c-0.052-0.445,0.128-0.886,0.477-1.166c0.349-0.278,0.815-0.364,1.242-0.209   c5.201,1.836,7.094,6.473,7.54,9.925c1.473-1.405,1.495-3.209,1.495-3.233c0-0.592,0.402-1.108,0.975-1.255   c0.579-0.145,1.174,0.115,1.458,0.634c2.006,3.668,5.066,5.95,7.305,7.228l-1.542-3.737c-0.209-0.506-0.078-1.09,0.329-1.456   c0.408-0.368,1.004-0.439,1.483-0.179c2.566,1.382,4.599,2.946,6.75,4.602c2.595,1.998,5.279,4.063,9.06,5.839   c3.691,1.736,6.182,1.405,7.614,0.825c1.485-0.599,2.333-1.657,2.608-2.381c0.521-1.368,0.673-3.334-0.164-4.636   C433.674,202.665,432.765,202.2,431.508,202.117z"/>
        <path style="fill:#FFD250;"
              d="M278.533,220.748c0.003,0.001,0.004,0.003,0.004,0.003c0.007,0.002,0.01,0.001,0.014,0.002   c0.096,0.032,9.784,3.089,18.58,3.612c0.483,0.029,0.911,0.326,1.107,0.768c0.196,0.444,0.13,0.96-0.174,1.338l-0.307,0.383   c1.745-0.262,3.939-0.504,6.092-0.513c-0.882-1.05-1.979-2.385-3.106-3.784c-2.353-0.043-10.96-0.417-17.965-3.793   c-1.701-0.825-4.643-2.251-6.042-1.529c-0.241,0.125-0.639,0.709-0.574,1.426C276.249,219.57,277.089,220.313,278.533,220.748z"/>
        <path style="fill:#FFD250;"
              d="M307.726,202.019c-0.135,0-0.258,0.015-0.366,0.047c-0.565,0.169-0.852,0.808-0.928,1.306   c-0.094,0.638,0.067,1.495,0.808,1.989c0.967,0.643,2.001,0.202,2.59-0.378c0.186-0.181,1.075-1.132,0.418-2.171l-0.002-0.003   C309.234,202.345,308.346,202.019,307.726,202.019z"/>
        <path style="fill:#FFD250;"
              d="M295.01,233.256c0.628,1.496,1.601,2.656,2.406,3.433c0.305-0.661,0.771-1.348,1.478-1.864   c0.692-0.504,1.89-0.995,3.647-0.629c0.027,0.002,0.052,0.007,0.079,0.011c0.05,0.011,0.09,0.007,0.141,0.019   c0.045,0.011,0.074,0.046,0.119,0.059c0.063,0.022,0.128,0.025,0.189,0.057c0.045,0.024,0.073,0.066,0.113,0.094   c0.661,0.281,1.212,0.734,1.504,1.417c0.982,2.291-0.746,6.737-2.271,9.902c1.078-0.533,2.109-1.073,2.666-1.372   c0.388-0.209,0.857-0.206,1.242,0.01c0.386,0.214,0.636,0.611,0.663,1.049l0.366,5.78c2.026-2.136,3.622-4.456,3.643-4.486   c0.28-0.41,0.764-0.616,1.259-0.55c0.491,0.073,0.896,0.418,1.046,0.891l1.478,4.668c2.068-1.903,3.872-4.451,3.894-4.483   c0.251-0.354,0.661-0.543,1.093-0.55c0.434,0.012,0.833,0.24,1.065,0.607l2.229,3.553l3.18-6.359   c0.231-0.464,0.668-0.756,1.232-0.715c0.516,0.029,0.965,0.361,1.144,0.847l2.902,7.891l5.664-3.573   c0.429-0.273,0.973-0.267,1.402,0.014c1.847,1.21,4.685,1.989,6.474,2.391l-0.484-5.072c-0.034-0.361,0.084-0.719,0.326-0.987   c0.241-0.27,0.584-0.427,0.945-0.432l3.241-0.049c-0.779-0.79-1.424-1.552-1.739-1.939c-0.211-0.257-0.295-0.572-0.281-0.88   c-2.387-0.101-5.715-0.527-9.041-1.963l-1.979,3.052c-0.189,0.292-0.486,0.494-0.827,0.564c-0.086,0.019-0.174,0.027-0.26,0.027   c-0.255,0-0.506-0.076-0.722-0.219l-7.484-5.021l-1.375,3.744c-0.159,0.43-0.531,0.744-0.982,0.827   c-0.45,0.088-0.909-0.078-1.211-0.422c-1.286-1.475-3.305-3.735-4.506-4.975c-1.081,1.043-2.979,2.725-5.009,3.852   c-0.331,0.184-0.725,0.213-1.078,0.083c-0.354-0.13-0.634-0.408-0.766-0.763l-2.052-5.507c-0.25-0.67,0.091-1.417,0.763-1.667   c0.668-0.25,1.417,0.094,1.667,0.763l1.496,4.017c2.171-1.508,3.983-3.45,4.005-3.474c0.462-0.498,1.232-0.557,1.76-0.132   c0.754,0.604,2.802,2.86,4.231,4.462l1.193-3.249c0.137-0.373,0.439-0.663,0.817-0.785c0.375-0.13,0.791-0.069,1.122,0.155   l7.761,5.206l1.876-2.892c0.361-0.557,1.083-0.751,1.665-0.454c3.445,1.723,7.165,2.139,9.539,2.202   c-1.449-2.707-1.576-6.139-1.585-6.945c-1.94-0.856-4.324-2.149-6.722-4.121l-0.933,2.305c-0.15,0.368-0.461,0.648-0.845,0.758   c-0.383,0.106-0.796,0.037-1.117-0.196l-3.744-2.716l-0.364,2.806c-0.057,0.435-0.329,0.812-0.725,1   c-0.393,0.189-0.857,0.17-1.233-0.061c-0.13-0.078-3.211-1.96-5.046-4.025c-0.476-0.535-0.427-1.353,0.108-1.829   c0.528-0.476,1.35-0.43,1.829,0.108c0.776,0.872,1.863,1.739,2.769,2.396l0.376-2.89c0.059-0.454,0.353-0.842,0.773-1.022   c0.422-0.182,0.906-0.127,1.274,0.14l4.167,3.023l0.997-2.462c0.16-0.395,0.506-0.687,0.925-0.778   c0.415-0.089,0.854,0.029,1.164,0.322c3.231,3.04,6.727,4.682,8.901,5.487c-0.742-3.459-1.026-7.796-1.039-8.024   c-0.002-0.032,0.012-0.06,0.012-0.092c-2.019-1.113-4.874-3.033-7.341-6.048c-0.012,1.598-0.142,3.222-0.533,4.25   c-0.135,0.354-0.417,0.631-0.773,0.759c-0.358,0.123-0.752,0.091-1.078-0.093c-0.157-0.089-2.976-1.709-5.075-4.073   c-0.363,1.302-0.798,2.676-1.164,3.288c-0.351,0.58-1.083,0.795-1.69,0.493c-0.123-0.061-2.109-1.066-3.879-2.603   c-0.172,1.726-0.439,3.675-0.818,4.624c-0.137,0.344-0.415,0.612-0.764,0.739c-0.349,0.12-0.734,0.093-1.06-0.083   c-0.118-0.064-2.367-1.297-4.467-2.861l-0.569,2.161c-0.098,0.369-0.353,0.678-0.698,0.842c-0.348,0.16-0.742,0.165-1.092,0.008   c-0.157-0.071-3.862-1.775-5.972-4.354c-0.454-0.553-0.373-1.37,0.182-1.822c0.552-0.454,1.37-0.373,1.822,0.182   c1.009,1.232,2.553,2.262,3.666,2.909l0.665-2.526c0.116-0.439,0.45-0.785,0.884-0.913c0.432-0.135,0.903-0.022,1.238,0.282   c1.238,1.12,2.914,2.222,4.105,2.952c0.253-1.599,0.45-3.912,0.535-5.412c0.034-0.579,0.445-1.066,1.011-1.191   c0.57-0.128,1.147,0.138,1.422,0.646c0.712,1.313,2.424,2.59,3.715,3.398c0.354-1.108,0.791-2.743,1.119-4.154   c0.127-0.542,0.582-0.941,1.135-0.995c0.553-0.069,1.08,0.248,1.308,0.756c0.81,1.793,2.77,3.433,4.171,4.437   c0.152-1.89,0.012-4.574-0.162-6.254c-0.064-0.624,0.327-1.205,0.93-1.378c0.616-0.167,1.245,0.111,1.522,0.671   c2.607,5.286,7.216,8.215,9.613,9.446c1.308-14.3-2.885-19.771-2.929-19.827c-0.234-0.295-0.332-0.682-0.263-1.053   c0.071-0.369,0.295-0.695,0.621-0.884c2.327-1.347,3.74-3.808,4.606-6.196c-5.268,5.108-13.615,7.07-17.682,7.748l1.986,2.419   c0.302,0.369,0.378,0.876,0.196,1.318c-0.184,0.442-0.594,0.746-1.07,0.793c-4.982,0.498-8.618-0.162-11.066-0.987l0.847,1.564   c0.223,0.41,0.208,0.909-0.04,1.304c-0.246,0.396-0.698,0.663-1.154,0.607c-4.059-0.174-7.611-1.846-10.529-3.324   c-0.138,0.953-0.609,1.881-1.392,2.645c-0.958,0.935-2.178,1.419-3.386,1.419c-0.855,0-1.706-0.243-2.451-0.741   c-1.464-0.977-2.205-2.713-1.933-4.53c0.251-1.669,1.304-2.973,2.748-3.405c1.932-0.574,4.137,0.543,6.926,1.964   c2.214,1.129,4.854,2.472,7.732,3.074l-1.604-2.963c-0.299-0.552-0.16-1.237,0.329-1.63c0.491-0.386,1.188-0.376,1.662,0.035   c0.029,0.025,3.253,2.674,10.573,2.537l-1.846-2.251c-0.304-0.369-0.378-0.879-0.194-1.321c0.186-0.442,0.599-0.746,1.076-0.791   c0.139-0.013,10.773-1.091,17.316-6.363c-2.13,0.624-3.78,0.526-3.907,0.523c-0.359-0.029-0.69-0.204-0.914-0.486   c-2.998-3.766-6.064-4.93-7.611-5.291c-0.869,2.737-2.971,4.952-3.074,5.058c-0.278,0.288-0.675,0.43-1.07,0.391   c-0.398-0.042-0.754-0.265-0.967-0.606c-2.311-3.725-5.643-4.705-7.58-4.948c0.238,2.753-1.687,5.016-2.968,5.957   c-0.498,0.361-1.178,0.329-1.631-0.078c-5.561-4.97-9.854-3.499-11.592-2.507c0.548,1.363,0.29,2.477-0.081,3.229   c-2.656,5.38-19.081,6.462-22.348,6.624c-0.405,0.029-0.811-0.157-1.071-0.479c-0.262-0.322-0.351-0.749-0.245-1.149   c0.24-0.896,0.079-1.863-0.449-2.726c-0.54-0.882-1.405-1.525-2.313-1.719c-0.854-0.181-2.483-0.064-3.457,1.004   c-1.113,1.225-1.189,3.489-0.219,6.551c1.739,5.495,7.096,10.909,10.431,13.877c-0.03-0.683-0.01-1.186-0.003-1.313   c0.029-0.553,0.405-1.027,0.938-1.179c0.535-0.157,1.102,0.049,1.419,0.504c1.105,1.588,2.423,2.661,3.413,3.317l0.65-4.145   c0.091-0.574,0.552-1.017,1.129-1.087c0.574-0.049,1.129,0.256,1.35,0.795c1.174,2.851,8.606,11.78,11.371,14.978   c0.354,0.408,0.417,0.994,0.157,1.468c-0.26,0.472-0.785,0.727-1.321,0.661c-4.736-0.675-11.693,0.901-11.763,0.916   c-0.536,0.125-1.095-0.106-1.388-0.574c-0.292-0.467-0.258-1.068,0.088-1.5l0.958-1.193c-6.575-0.683-12.977-2.413-15.565-3.168   l-2.175,5.908l5.859-0.585c0.442-0.056,0.896,0.148,1.166,0.515c0.273,0.364,0.334,0.844,0.162,1.265l-1.105,2.701l4.827-1.277   c0.639-0.177,1.296,0.165,1.537,0.776c0.639,1.62,1.424,2.684,2.05,3.344l1.36-3.006c0.214-0.469,0.682-0.796,1.2-0.761   C294.348,232.468,294.811,232.781,295.01,233.256z"/>
        <path style="fill:#FFD250;"
              d="M278.23,299.516c5.111,3.413,9.241-0.481,11.448-3.479c-4.708-3.435-8.136-7.661-10.159-12.692   c-0.662-1.645-1.092-3.307-1.428-4.966c-0.481-0.378-7.591-6.009-13.545-12.591c-0.304,0.793-0.703,1.424-1.027,1.85   c0.418,1.701,0.012,3.091-0.513,3.982c0.361,1.213,0.071,2.416-0.349,3.295c0.901,1.36,1.065,2.691,0.488,3.97   c-0.132,0.293-0.31,0.563-0.496,0.828c0.74,0.894,1.906,2.941,1.906,7.061c0,2.77,1.026,4.432,1.792,5.286   c0.447-0.386,0.936-0.604,1.475-0.661c1.635-0.182,2.978,1.216,4.813,3.145C274.069,296.054,275.857,297.936,278.23,299.516z"/>
        <path style="fill:#FFD250;"
              d="M252.81,264.389c-0.096,0-0.192-0.002-0.288-0.002c-1.864-0.017-3.567-0.203-5.136-0.505   c-0.151,0.433,0.17,1.69,0.507,1.949c0.331,0.253,0.552,0.673,0.54,1.09c-0.012,0.415-0.191,0.823-0.535,1.058   c-0.221,0.155-0.879,0.742-0.887,1.316c-0.008,0.558,0.651,1.137,1.046,1.434c0.288,0.216,0.474,0.543,0.511,0.901   c0.037,0.359-0.076,0.717-0.314,0.989c-0.167,0.197-0.643,0.918-0.56,1.523c0.017,0.128,0.071,0.52,0.746,0.979   c0.292,0.199,0.491,0.51,0.55,0.859c0.057,0.349-0.03,0.707-0.243,0.99c0.002,0-0.363,0.531-0.223,1.06   c0.155,0.585,0.884,1.036,1.466,1.309c1.091,0.514,2.661,0.843,4.296,0.908c0.05-0.008,0.101-0.001,0.151-0.003   c1.379,0.04,2.794-0.094,4.005-0.54c1.186-0.437,1.974-1.071,2.34-1.885c0.115-0.253,0.353-0.781-0.666-1.971   c-0.398-0.466-0.417-1.144-0.046-1.631c0.002-0.003,0.866-1.191,0.332-2.139c-0.285-0.508-0.199-1.142,0.213-1.552   c0.076-0.084,0.881-1.031,0.243-2.731c-0.184-0.489-0.056-1.041,0.326-1.399c0.047-0.047,1.219-1.266,1.193-3.121   c-0.159-0.194-0.318-0.388-0.473-0.582C259.397,263.754,256.322,264.389,252.81,264.389z"/>
        <path style="fill:#FFD250;"
              d="M264.662,174.07c-5.24,2.818-16.414,11.653-16.736,35.841l0.288,40.76   c0.035,0.057,0.084,0.116,0.113,0.171c0.677,1.275,0.356,2.929-0.024,4.074c3.238,1.157,7.275,0.682,9.004,0.253   c-0.345-1.01-0.618-2.642,0.552-4.491C257.678,202.071,262.314,181.392,264.662,174.07z"/>
        <path style="fill:#FFD250;"
              d="M265.202,255.749c0-2.072-1.562-3.685-3.108-4.208c-0.321-0.11-1.41-0.413-1.91,0.243   c-0.936,1.225-0.604,2.09-0.285,2.929c0.179,0.466,0.363,0.946,0.224,1.496c-0.175,0.702-0.815,0.99-1.026,1.087   c-1.758,0.798-8.442,1.844-13.062-0.54c-0.626-0.324-0.879-1.09-0.569-1.724c0.488-0.999,0.842-2.465,0.57-2.974   c-0.022-0.042-0.083-0.159-0.447-0.208c-0.344-0.047-0.688-0.071-1.027-0.071c-1.577,0-3.04,0.496-3.831,1.343   c-0.636,0.682-0.835,1.549-0.607,2.65c0.768,3.708,5.411,5.959,12.421,6.023c4.958-0.017,9.224-1.188,11.353-3.298   C264.763,257.639,265.202,256.714,265.202,255.749z"/>
        <path style="fill:#FFD250;"
              d="M254.048,286.492c0.3-0.395,0.795-0.585,1.282-0.484c0.901,0.189,3.14,0.663,4.425-0.332   c0.449-0.344,0.55-1.284,0.206-1.896c-0.118-0.211-0.477-0.847-1.827-0.331c-1.277,0.493-3.111,1.026-4.263-0.01   c-0.23-0.207-0.376-0.449-0.487-0.698c-0.346-0.03-0.691-0.048-1.031-0.1c-0.11,0.285-0.262,0.563-0.523,0.798   c-1.147,1.034-2.983,0.503-4.262,0.01c-1.345-0.511-1.711,0.12-1.827,0.331c-0.344,0.612-0.245,1.552,0.202,1.895   c1.287,0.992,3.528,0.523,4.263,0.368c0.477-0.096,1.063,0.069,1.368,0.461c0.304,0.395,0.432,0.911,0.209,1.355   c-0.292,0.584-1.561,3.064-2.801,4.613c1.62,2.369,3.023,6.592-0.263,10.347c-0.268,0.304-0.685,0.456-1.071,0.439   c-0.405-0.03-0.774-0.25-0.994-0.592c-0.187-0.283-0.845-1.07-1.572-1.211c-0.219-0.042-0.567-0.059-1.068,0.283   c-0.339,0.235-0.53,1.011-0.243,1.859c0.511,1.518,2.1,2.362,4.343,2.257c0.51-0.051,1.061,0.3,1.267,0.815   c0.204,0.515,0.059,1.102-0.361,1.463l-2.112,1.812l3.448,0.84c0.457,0.111,0.818,0.462,0.943,0.916   c0.005,0.022,0.521,1.859,1.552,3.41c1.029-1.55,1.545-3.388,1.55-3.41c0.125-0.454,0.486-0.805,0.943-0.916l3.448-0.84   l-2.114-1.812c-0.42-0.359-0.565-0.948-0.361-1.463s0.719-0.86,1.267-0.815c2.215,0.098,3.831-0.739,4.344-2.259   c0.287-0.847,0.096-1.623-0.243-1.858c-0.509-0.346-0.86-0.329-1.076-0.282c-0.751,0.152-1.426,0.994-1.566,1.21   c-0.219,0.342-0.589,0.562-0.994,0.592c-0.42,0.022-0.805-0.132-1.071-0.439c-3.285-3.756-1.881-7.978-0.262-10.347   c-1.24-1.549-2.509-4.029-2.801-4.613C253.697,287.415,253.748,286.885,254.048,286.492z"/>
</g>
    <path style="fill:#464655;"
          d="M436.392,202.102c-0.692-1.078-2.072-2.397-4.716-2.569c-1.837-0.132-3.31,0.363-4.381,1.434  c-0.862,0.859-1.277,1.923-1.475,2.823c-1.768-0.93-4.596-3.001-7.55-5.166c-8.599-6.303-21.595-15.827-34.35-17.44  c-10.346-1.314-22.112,0.749-28.583,6.753c0.097-0.794,0.126-1.325,0.13-1.416c0.001-0.017-0.013-0.03-0.013-0.047  c0.002-0.242-0.066-0.468-0.189-0.67c-0.026-0.044-0.055-0.076-0.086-0.116c-0.144-0.187-0.323-0.348-0.561-0.435  c-0.005-0.002-0.007-0.007-0.011-0.009h-0.004c-0.244-0.086-0.491-0.072-0.725-0.016c-0.045,0.011-0.084,0.018-0.128,0.033  c-0.227,0.079-0.425,0.212-0.578,0.403c-0.01,0.012-0.028,0.014-0.038,0.026c-2.688,3.609-6.376,4.083-7.735,4.128  c-4.852-5.762-9.979-5.94-10.2-5.945c-0.742,0.049-1.215,0.461-1.311,1.105c-0.202,1.368-0.999,2.723-1.672,3.663  c-4.275-5.316-10.295-4.783-10.563-4.761c-0.417,0.04-0.786,0.28-0.995,0.643c-0.208,0.361-0.229,0.801-0.056,1.183  c0.771,1.697-0.164,3.175-0.909,3.997c-8.417-6.745-14.894-1.25-14.961-1.189c-0.494,0.434-0.587,1.169-0.213,1.711  c0.628,0.909,0.516,1.412,0.349,1.751c-1.362,2.76-11.241,4.56-18.641,5.088c-0.039-1.041-0.356-2.077-0.936-3.027  c-0.918-1.498-2.369-2.554-3.98-2.9c-1.792-0.39-4.312,0.022-5.918,1.795c-1.795,1.974-2.053,5.028-0.771,9.077  c2.003,6.327,8.016,12.278,11.524,15.342c-0.854-0.315-1.701-0.66-2.522-1.056c-2.065-1.006-5.522-2.688-8.076-1.36  c-1.289,0.666-2.114,2.335-1.964,3.966c0.076,0.817,0.532,2.652,2.923,3.825l-2.876,7.813c-0.154,0.418-0.081,0.887,0.192,1.24  c0.272,0.353,0.707,0.545,1.152,0.496l5.777-0.577l-1.274,3.116c-0.186,0.456-0.098,0.977,0.226,1.346  c0.324,0.368,0.818,0.531,1.306,0.396l6.271-1.66c1.62,3.327,3.781,4.491,3.882,4.543c0.319,0.169,0.687,0.194,1.022,0.078  c0.337-0.116,0.612-0.366,0.759-0.69l0.999-2.212c1.036,1.45,2.156,2.412,2.848,2.942c-0.422,0.348-0.836,0.691-1.294,1.063  c-4.354,3.543-10.317,8.397-14.602,16.694c-2.152,4.167-3.829,10.522-3.329,17.283c-3.121-2.624-9.007-7.829-13.339-13.155  c0.522-0.356,1.077-0.692,1.496-1.107c1.355-1.341,2.07-2.929,2.07-4.587c0-3.445-2.524-5.87-4.867-6.662  c-0.873-0.294-1.711-0.338-2.476-0.209c-0.076-56.476,6.356-73.764,7.663-76.677c0.206-0.461,0.127-1-0.206-1.382  c-0.331-0.38-0.857-0.533-1.341-0.391c-0.849,0.25-20.79,6.479-21.231,39.475l0.278,39.367c-2.707-0.286-5.276,0.485-6.774,2.082  c-0.85,0.909-1.756,2.505-1.252,4.947c0.67,3.24,3.284,5.631,7.295,6.944c-0.11,0.425-0.148,0.906-0.094,1.444  c0.062,0.633,0.26,1.415,0.626,2.095c-0.489,0.584-0.97,1.417-0.995,2.445c-0.024,0.99,0.371,1.92,1.174,2.772  c-0.317,0.639-0.594,1.505-0.472,2.463c0.074,0.57,0.314,1.328,0.99,2.06c-0.191,0.565-0.309,1.304-0.105,2.117  c0.208,0.84,0.731,1.561,1.505,2.178c-1.984-0.368-3.378,0.527-4.03,1.692c-0.98,1.748-0.584,4.09,0.884,5.218  c1.196,0.919,2.618,1.213,3.914,1.146c-0.66,1.117-1.356,2.149-1.795,2.492c-0.285,0.221-0.466,0.55-0.496,0.909  c-0.032,0.359,0.088,0.715,0.331,0.984c0.135,0.148,2.961,3.334,1.279,6.642c-0.52-0.427-1.193-0.827-1.994-0.989  c-1.041-0.211-2.094,0.029-3.052,0.687c-1.368,0.938-1.876,2.92-1.235,4.822c0.491,1.456,1.716,2.949,3.806,3.637l-1.819,1.559  c-0.369,0.315-0.53,0.813-0.417,1.286c0.113,0.472,0.481,0.842,0.953,0.957l5.198,1.267c0.398,1.142,1.309,3.347,2.831,4.869  c0.243,0.243,0.705,0.38,1.049,0.38s0.673-0.137,0.916-0.38c1.522-1.522,2.433-3.727,2.831-4.869l5.198-1.267  c0.472-0.115,0.84-0.484,0.953-0.957c0.113-0.474-0.049-0.97-0.417-1.286l-1.819-1.559c2.089-0.69,3.315-2.181,3.806-3.637  c0.641-1.901,0.133-3.885-1.235-4.822c-0.96-0.66-2.02-0.896-3.054-0.687c-0.8,0.162-1.471,0.56-1.992,0.987  c-1.655-3.29,1.147-6.494,1.282-6.644c0.24-0.268,0.358-0.624,0.326-0.982s-0.211-0.688-0.494-0.908  c-0.437-0.341-1.132-1.372-1.792-2.487c1.294,0.012,2.71-0.224,3.909-1.151c0.263-0.202,0.45-0.48,0.642-0.749  c0.092,5.686,3.696,7.938,3.852,8.032c0.614,0.366,1.402,0.172,1.771-0.437c0.305-0.498,0.488-0.594,0.484-0.599  c0.456,0.025,1.734,1.372,2.669,2.354c1.525,1.604,3.425,3.602,6.037,5.343c1.915,1.277,3.723,1.78,5.387,1.78  c4.665,0,8.159-3.937,9.65-5.96c2.906,1.823,6.2,3.405,9.954,4.687c0.128,0.044,0.259,0.061,0.388,0.064  c0.448,1.454,0.938,2.919,1.443,4.37c1.621,4.651,3.297,9.461,2.639,13.114c-0.852,4.734-8.339,4.781-12.189,4.133  c-2.738-0.445-5.279,0.255-7.143,1.992c-1.864,1.741-2.824,4.373-2.564,7.042c0.181,1.864,1.115,2.742,1.868,3.148  c1.729,0.93,4.068,0.234,5.338-0.285c2.917,2.541,6.408,1.475,8.518,0.132c1.299,1.085,2.747,1.653,4.314,1.689  c0.052,0.002,0.103,0.002,0.155,0.002c2.369,0,4.361-1.247,5.358-2.009c5.019,2.031,7.889,0.516,8.39,0.206  c4.074-3.437,3.405-9.615,2.873-12.301c8.373-2.536,11.073-9.812,11.189-10.136c0.162-0.454,0.059-0.96-0.267-1.316  c-0.329-0.353-0.83-0.496-1.291-0.373c-2.581,0.693-4.621,0.221-5.591-1.299c-1.314-2.057-0.462-5.421,2.171-8.567  c0.552-0.66,1.076-1.392,1.587-2.153c6.47-1.446,11.998-3.964,17.849-6.632c4.844-2.208,9.853-4.493,15.807-6.359  c1.67-0.524,3.291-0.832,4.89-1.038c-0.484,7.02,3.117,11.645,6.653,16.094c0.977,1.228,1.954,2.455,2.838,3.735  c3.793,5.492,3.064,17.005,2.757,18.044c-0.27,0.59-2.811,3.179-6.413,2.684c-2.993-0.398-6.344,0.587-8.54,2.51  c-1.567,1.372-2.429,3.135-2.429,4.964c0,1.559,0.749,2.333,1.378,2.708c1.876,1.115,4.982-0.078,6.646-0.874  c1.556,1.201,3.152,1.645,4.628,1.645c1.836,0,3.486-0.683,4.643-1.443c3.474,2.195,7.113,0.909,9.141-0.474  c2.541,1.378,4.584,1.107,5.9,0.587c0.428-0.168,0.819-0.381,1.174-0.619c0.052,0.054,0.101,0.127,0.154,0.173  c1.378,1.186,3.929,0.555,5.562-0.037c0.742,1.23,1.726,1.783,2.502,2.031c2.399,0.764,5.154-0.55,6.541-1.372  c1.682,1.301,3.354,1.847,5.023,1.613c1.473-0.204,2.583-0.995,3.298-1.689c0.763,0.548,1.922,1.225,3.487,1.719  c0.69,0.219,1.297,0.309,1.831,0.309c1.805,0,2.748-1.029,3.118-1.567c1.498-2.188,0.717-5.893-0.955-7.983  c-0.987-1.233-1.807-3.541-1.412-5.915c0.211-1.265,0.871-3.033,2.823-4.275c3.519-2.239,5.829-5.271,5.883-7.72  c0.024-1.012-0.361-1.847-1.085-2.354c-0.638-0.447-1.353-0.542-2.046-0.633c-1.542-0.204-3.462-0.457-5.907-4.97  c-2.178-4.022,0.402-11.815,3.135-20.067c1.562-4.722,3.18-9.605,4.193-14.467c2.507-12.036-3.536-21.732-5.724-24.752  c6.085-5.986,8.636-11.731,7.585-17.084c-1.157-5.9-6.657-9.942-11.015-11.611c-5.267-2.018-14.094-0.968-22.629,0.054  c-6.656,0.796-12.949,1.552-16.728,0.751c-1.429-0.299-2.445-0.919-3.018-1.846c-0.999-1.611-0.464-3.73-0.459-3.752  c0.105-0.396,0.013-0.823-0.243-1.142c-0.258-0.319-0.683-0.523-1.061-0.484c-2.483,0.1-4.461,1.483-5.684,2.625  c-0.071-0.348-0.083-0.705-0.032-1.075c0.336-2.49,3.204-4.667,3.233-4.689c0.342-0.258,0.538-0.67,0.516-1.1  c-0.02-0.429-0.251-0.82-0.619-1.044c-5.277-3.214-10.205-0.833-12.728,1.402c-1.066-1.044-1.709-2.64-1.658-4.248  c0.032-1.056,0.405-2.996,2.516-4.118c0.955-0.508,1.775-0.619,2.519-0.346c1.245,0.464,2.072,1.994,2.286,2.546  c0.137,0.353,0.423,0.631,0.781,0.756c0.358,0.13,0.756,0.091,1.081-0.101c2.888-1.685,3.813-5.225,4.106-7.189  c1.699,0.277,2.995,0.997,3.936,2.185c2.64,3.33,1.561,9.197,1.55,9.256c-0.084,0.439,0.064,0.889,0.39,1.193  c0.326,0.304,0.786,0.417,1.218,0.304c5.864-1.571,7.741-6.333,8.031-9.853c4.484,2.792,4.179,8.567,4.162,8.839  c-0.029,0.445,0.174,0.876,0.535,1.135c0.363,0.262,0.832,0.317,1.245,0.152c2.146-0.871,3.334-2.286,3.992-3.594  c4.081,5.353,9.757,7.211,10.028,7.298c0.481,0.147,1.004,0.014,1.346-0.358c0.341-0.371,0.437-0.906,0.245-1.372l-1.267-3.071  c1.031,0.727,2.025,1.491,3.045,2.278c2.706,2.082,5.502,4.235,9.537,6.131c4.537,2.131,7.769,1.653,9.689,0.884  c1.915-0.774,3.432-2.219,4.059-3.864C437.529,207.14,437.806,204.304,436.392,202.102z M434.376,208.138  c-0.275,0.724-1.124,1.782-2.608,2.381c-1.432,0.58-3.923,0.911-7.614-0.825c-3.781-1.777-6.465-3.842-9.06-5.839  c-2.151-1.657-4.184-3.221-6.75-4.602c-0.479-0.26-1.075-0.189-1.483,0.179c-0.407,0.366-0.538,0.95-0.329,1.456l1.542,3.737  c-2.239-1.277-5.299-3.56-7.305-7.228c-0.283-0.52-0.879-0.779-1.458-0.634c-0.574,0.147-0.975,0.663-0.975,1.255  c0,0.024-0.022,1.827-1.495,3.233c-0.445-3.452-2.338-8.09-7.54-9.925c-0.427-0.155-0.892-0.069-1.242,0.209  c-0.349,0.28-0.53,0.72-0.477,1.166c0.032,0.27,0.653,6.045-4.248,8.547c0.132-2.421-0.078-6.332-2.303-9.148  c-1.628-2.058-4.01-3.167-7.079-3.293c-0.332-0.037-0.685,0.111-0.938,0.348c-0.255,0.236-0.402,0.565-0.412,0.913  c0,0.04-0.148,3.514-1.913,5.527c-0.611-0.913-1.581-1.989-2.964-2.51c-1.454-0.548-3.022-0.388-4.656,0.479  c-2.386,1.267-3.804,3.573-3.892,6.325c-0.091,2.914,1.351,5.721,3.678,7.152c0.533,0.322,1.227,0.223,1.648-0.245  c0.17-0.192,3.867-4.235,8.69-2.541c-1.103,1.157-2.45,2.951-2.735,5.036c-0.223,1.613,0.204,3.125,1.264,4.494  c0.248,0.322,0.538,0.481,1.049,0.501c0.408-0.007,0.791-0.209,1.029-0.542c0.017-0.024,1.424-1.954,3.508-2.737  c-0.008,1.103,0.186,2.517,0.977,3.808c0.96,1.566,2.543,2.59,4.704,3.044c4.194,0.876,10.693,0.101,17.568-0.715  c8.228-0.979,16.733-1.994,21.394-0.208c3.74,1.432,8.447,4.83,9.401,9.691c0.916,4.662-1.664,9.88-7.663,15.508  c-0.503,0.471-0.548,1.252-0.106,1.778c0.086,0.103,8.633,10.467,5.913,23.52c-0.982,4.719-2.575,9.531-4.117,14.182  c-3.039,9.181-5.664,17.109-2.951,22.117c3.072,5.674,6.06,6.069,7.845,6.305c0.348,0.046,0.781,0.103,0.855,0.138  c0.256,0.523-0.658,3.266-4.658,5.812c-2.183,1.39-3.563,3.477-3.988,6.037c-0.462,2.78,0.3,5.905,1.944,7.96  c1.254,1.566,1.485,3.96,0.842,4.898c-0.127,0.182-0.51,0.731-2.031,0.255c-2.32-0.734-3.454-1.93-3.457-1.935  c-0.273-0.3-0.668-0.445-1.08-0.423c-0.407,0.037-0.771,0.263-0.985,0.609c-0.01,0.015-0.913,1.415-2.401,1.623  c-1.112,0.15-2.348-0.388-3.686-1.61c-0.452-0.413-1.127-0.45-1.628-0.098c-0.805,0.572-3.474,2.073-5.105,1.564  c-0.234-0.076-0.95-0.305-1.409-1.65c-0.12-0.346-0.38-0.626-0.715-0.769c-0.336-0.143-0.715-0.142-1.049,0.012  c-1.574,0.715-3.55,1.164-3.931,0.992c0,0-0.062-0.196,0.1-0.749c0.896-3.089,4.543-3.83,6.958-4.319  c0.444-0.089,0.845-0.172,1.181-0.256c0.267-0.066,0.572-0.127,0.898-0.191c2.377-0.472,7.322-1.456,6.701-7.675  c-0.132-1.308-0.094-2.514-0.061-3.681c0.113-3.83,0.219-7.447-5.799-11.78c-2.22-1.599-4.36-3.035-6.416-4.415  c-4.682-3.143-8.726-5.856-12.429-9.559c-7.644-7.648-16.75-9.888-27.073-6.656c-6.107,1.913-11.191,4.231-16.105,6.474  c-4.943,2.256-9.682,4.358-14.875,5.794c4.098-7.789,6.343-18.119,5.881-23.099c-0.067-0.712-0.717-1.242-1.41-1.171  c-0.712,0.068-1.237,0.698-1.171,1.41c0.53,5.686-3,19.647-8.773,26.545c-3.374,4.032-4.304,8.596-2.369,11.626  c1.201,1.878,3.241,2.777,5.807,2.802c-1.404,2.21-4.307,5.544-9.502,6.735c-0.348,0.081-0.648,0.3-0.828,0.609  c-0.181,0.307-0.226,0.677-0.125,1.019c0.022,0.076,2.165,7.579-1.544,10.74c-0.093,0.054-2.335,1.189-6.608-0.766  c-0.484-0.219-1.058-0.123-1.441,0.25c-0.022,0.017-2.121,1.986-4.333,1.851c-1.21-0.027-2.296-0.572-3.322-1.665  c-0.472-0.504-1.257-0.545-1.783-0.101c-0.154,0.133-3.821,3.177-6.544,0.127c-0.4-0.447-1.046-0.56-1.569-0.285  c-1.039,0.543-2.961,1.144-3.777,0.702c-0.108-0.059-0.437-0.236-0.523-1.119c-0.181-1.873,0.476-3.703,1.756-4.898  c1.262-1.178,3.018-1.653,4.948-1.329c6.791,1.134,14.106-0.356,15.166-6.232c0.778-4.322-1.012-9.458-2.742-14.427  c-1.302-3.737-2.649-7.602-2.71-10.733c-0.121-6.398,1.248-12.437,1.262-12.498c0.16-0.697-0.273-1.392-0.972-1.552  c-0.698-0.169-1.392,0.272-1.552,0.97c-0.061,0.258-1.458,6.401-1.329,13.131c0.026,1.324,0.278,2.734,0.607,4.168  c-9.832-3.633-16.397-9.288-19.446-16.867c-3.573-8.884-1.547-18.413,1.274-23.876c4.039-7.816,9.527-12.282,13.937-15.872  c2.073-1.686,3.929-3.204,5.254-4.792c-0.139,2.154-1.973,6.488-3.971,9.958c-0.267,0.462-0.223,1.039,0.111,1.456  c0.332,0.417,0.891,0.585,1.397,0.427c1.113-0.348,3.125-1.328,4.601-2.08l0.415,6.541c0.03,0.484,0.331,0.911,0.776,1.105  c0.447,0.196,0.965,0.123,1.338-0.187c1.746-1.432,3.396-3.344,4.537-4.786l1.289,4.069c0.123,0.391,0.427,0.702,0.817,0.835  c0.391,0.132,0.818,0.074,1.156-0.162c1.846-1.277,3.649-3.324,4.775-4.729l2.46,3.921c0.25,0.398,0.695,0.655,1.161,0.606  c0.467-0.022,0.887-0.295,1.097-0.715l2.87-5.741l2.421,6.581c0.135,0.368,0.429,0.653,0.8,0.779  c0.135,0.047,0.277,0.069,0.417,0.069c0.241,0,0.483-0.067,0.692-0.199l6.344-4.002c3.352,1.863,8.201,2.639,8.42,2.674  c0.391,0.052,0.796-0.062,1.088-0.337c0.292-0.273,0.44-0.668,0.403-1.066l-0.516-5.406l5.616-0.086  c0.646-0.01,1.186-0.496,1.265-1.137c0.079-0.643-0.327-1.243-0.952-1.41c-0.613-0.164-2.019-1.477-3.218-2.823  c0.152-0.011,0.222-0.017,0.294-0.024c3.23,0.246,58.058,4.283,70.081-4.463c6.686-4.862,6.219-9.283,5.345-11.484  c-1.804-4.547-8.365-7.447-14.909-6.614c-2.602,0.332-5.399,0.832-8.299,1.351c-8.206,1.469-17.507,3.136-25.133,1.267  c-2.974-0.729-5.524-1.694-7.774-2.544c-3.808-1.442-6.561-2.485-8.67-1.225c-0.874,0.523-1.508,1.375-1.932,2.622  c-1.353-1.51-2.855-4.267-0.872-8c0.262-0.491,0.179-1.095-0.204-1.5c-0.076-0.081-7.594-8.139-4.056-16.983  c3.177-7.943,15.682-12.426,29.732-10.641c12.088,1.529,24.759,10.814,33.142,16.959c5.277,3.867,8.12,5.896,10.043,6.148  c0.385,0.056,0.764-0.078,1.048-0.339c0.282-0.261,0.434-0.638,0.413-1.022c-0.002-0.017-0.081-1.748,0.891-2.708  c0.53-0.525,1.304-0.756,2.374-0.675c1.257,0.083,2.166,0.548,2.704,1.385C435.049,204.805,434.898,206.77,434.376,208.138z   M393.642,333.419c-1.257,0.432-2.666,0.143-4.206-0.867c-0.484-0.317-1.124-0.272-1.559,0.105  c-0.157,0.135-3.858,3.263-7.408,0.402c-0.484-0.39-1.186-0.376-1.662,0.03c-0.385,0.331-3.867,3.136-7.336-0.111  c-0.41-0.381-1.016-0.459-1.502-0.194c-1.763,0.953-4.226,1.731-4.886,1.333c-0.108-0.064-0.113-0.412-0.113-0.481  c0-1.373,0.84-2.397,1.544-3.013c1.637-1.431,4.235-2.19,6.492-1.893c4.908,0.656,8.486-2.711,9.136-4.23  c0.574-1.34,1.52-13.986-3.005-20.537c-0.918-1.329-1.928-2.603-2.942-3.877c-3.44-4.328-6.663-8.441-6.08-14.695  c6.287-0.132,11.982,2.273,16.974,7.267c2.613,2.613,5.446,4.776,8.411,6.859c-1.15,1.181-3.004,3.413-3.144,5.683  c-0.069,1.117,0.285,2.139,1.021,2.958c1.879,2.087,4.031,1.989,5.453,1.92c0.245-0.014,0.574-0.032,0.813-0.015  c-0.363,0.879-1.706,2.715-2.635,3.982c-2.57,3.506-4.233,5.945-3.95,7.835c0.194,1.289,0.7,3.233,1.191,5.112  c0.467,1.792,1.173,4.5,1.14,5.024C395.323,332.213,394.741,333.038,393.642,333.419z M399.098,315.573  c2.49-3.398,3.756-5.239,3.023-6.703c-0.751-1.505-2.288-1.439-3.411-1.382c-1.206,0.057-2.35,0.108-3.406-1.066  c-0.275-0.305-0.386-0.633-0.361-1.061c0.09-1.48,1.76-3.401,2.721-4.344c0.744,0.505,1.483,1.009,2.242,1.518  c2.035,1.365,4.15,2.785,6.345,4.366c4.901,3.529,4.83,5.945,4.724,9.601c-0.035,1.191-0.076,2.541,0.073,4.015  c0.359,3.599-1.692,4.29-4.628,4.874c-0.371,0.074-0.717,0.143-1.022,0.219c-0.304,0.076-0.666,0.148-1.068,0.231  c-1.872,0.38-4.865,1.019-6.945,2.96c-0.171-0.701-0.381-1.515-0.629-2.465c-0.472-1.815-0.962-3.691-1.135-4.844  C395.476,320.518,397.833,317.302,399.098,315.573z M267.82,291.398c-0.538,0.057-1.027,0.275-1.475,0.661  c-0.766-0.854-1.792-2.516-1.792-5.286c0-4.12-1.166-6.167-1.906-7.061c0.185-0.266,0.363-0.535,0.496-0.828  c0.577-1.279,0.413-2.61-0.488-3.97c0.42-0.879,0.71-2.082,0.349-3.295c0.525-0.891,0.931-2.281,0.513-3.982  c0.324-0.426,0.724-1.056,1.027-1.85c5.955,6.582,13.065,12.213,13.545,12.591c0.336,1.659,0.766,3.321,1.428,4.966  c2.023,5.032,5.451,9.257,10.159,12.692c-2.208,2.998-6.338,6.892-11.448,3.479c-2.372-1.581-4.16-3.462-5.596-4.974  C270.798,292.614,269.455,291.216,267.82,291.398z M256.98,302.816c0.267,0.307,0.651,0.461,1.071,0.439  c0.405-0.03,0.774-0.25,0.994-0.592c0.14-0.216,0.815-1.058,1.566-1.21c0.216-0.047,0.567-0.064,1.076,0.282  c0.339,0.235,0.53,1.011,0.243,1.858c-0.513,1.52-2.129,2.357-4.344,2.259c-0.548-0.046-1.063,0.3-1.267,0.815  s-0.059,1.103,0.361,1.463l2.114,1.812l-3.448,0.84c-0.457,0.111-0.818,0.462-0.943,0.916c-0.005,0.022-0.521,1.859-1.55,3.41  c-1.031-1.55-1.547-3.388-1.552-3.41c-0.125-0.454-0.486-0.805-0.943-0.916l-3.448-0.84l2.112-1.812  c0.42-0.361,0.565-0.948,0.361-1.463c-0.206-0.515-0.758-0.865-1.267-0.815c-2.242,0.105-3.831-0.739-4.343-2.257  c-0.287-0.849-0.096-1.625,0.243-1.859c0.501-0.342,0.849-0.326,1.068-0.283c0.727,0.142,1.385,0.928,1.572,1.211  c0.219,0.342,0.589,0.562,0.994,0.592c0.386,0.017,0.803-0.135,1.071-0.439c3.287-3.756,1.883-7.978,0.263-10.347  c1.24-1.549,2.509-4.029,2.801-4.613c0.223-0.444,0.094-0.96-0.209-1.355c-0.305-0.391-0.891-0.557-1.368-0.461  c-0.736,0.155-2.976,0.624-4.263-0.368c-0.447-0.342-0.547-1.282-0.202-1.895c0.116-0.211,0.483-0.842,1.827-0.331  c1.279,0.493,3.114,1.024,4.262-0.01c0.261-0.235,0.413-0.513,0.523-0.798c0.34,0.052,0.685,0.07,1.031,0.1  c0.111,0.249,0.256,0.491,0.487,0.698c1.152,1.036,2.986,0.503,4.263,0.01c1.35-0.516,1.709,0.12,1.827,0.331  c0.344,0.612,0.243,1.552-0.206,1.896c-1.286,0.995-3.524,0.521-4.425,0.332c-0.488-0.101-0.982,0.089-1.282,0.484  c-0.3,0.393-0.351,0.923-0.13,1.365c0.292,0.584,1.561,3.064,2.801,4.613C255.099,294.838,253.695,299.061,256.98,302.816z   M261.183,266.395c-0.381,0.358-0.509,0.909-0.326,1.399c0.638,1.701-0.167,2.647-0.243,2.731c-0.412,0.41-0.498,1.044-0.213,1.552  c0.533,0.948-0.331,2.136-0.332,2.139c-0.371,0.488-0.353,1.166,0.046,1.631c1.019,1.189,0.781,1.717,0.666,1.971  c-0.366,0.813-1.154,1.448-2.34,1.885c-1.211,0.446-2.626,0.58-4.005,0.54c-0.051,0.003-0.102-0.005-0.151,0.003  c-1.635-0.065-3.206-0.394-4.296-0.908c-0.582-0.273-1.311-0.724-1.466-1.309c-0.14-0.528,0.224-1.06,0.223-1.06  c0.213-0.283,0.3-0.641,0.243-0.99c-0.059-0.349-0.258-0.66-0.55-0.859c-0.675-0.459-0.729-0.85-0.746-0.979  c-0.083-0.606,0.393-1.326,0.56-1.523c0.238-0.272,0.351-0.629,0.314-0.989c-0.037-0.358-0.223-0.685-0.511-0.901  c-0.395-0.297-1.054-0.876-1.046-1.434c0.008-0.574,0.666-1.161,0.887-1.316c0.344-0.234,0.523-0.643,0.535-1.058  c0.012-0.417-0.209-0.837-0.54-1.09c-0.337-0.259-0.657-1.516-0.507-1.949c1.569,0.302,3.272,0.488,5.136,0.505  c0.096,0,0.192,0.002,0.288,0.002c3.512,0,6.587-0.634,9.093-1.698c0.155,0.195,0.314,0.388,0.473,0.582  C262.402,265.128,261.229,266.348,261.183,266.395z M252.545,261.796c-7.01-0.064-11.653-2.315-12.421-6.023  c-0.228-1.102-0.029-1.969,0.607-2.65c0.791-0.847,2.254-1.343,3.831-1.343c0.339,0,0.683,0.024,1.027,0.071  c0.364,0.049,0.425,0.165,0.447,0.208c0.272,0.51-0.083,1.976-0.57,2.974c-0.31,0.634-0.057,1.4,0.569,1.724  c4.619,2.384,11.304,1.338,13.062,0.54c0.211-0.096,0.85-0.385,1.026-1.087c0.138-0.55-0.046-1.031-0.224-1.496  c-0.319-0.839-0.651-1.704,0.285-2.929c0.499-0.656,1.589-0.353,1.91-0.243c1.545,0.523,3.108,2.136,3.108,4.208  c0,0.965-0.439,1.89-1.304,2.748C261.768,260.608,257.503,261.779,252.545,261.796z M257.308,255.17  c-1.729,0.429-5.767,0.904-9.004-0.253c0.38-1.146,0.7-2.799,0.024-4.074c-0.029-0.055-0.078-0.114-0.113-0.171l-0.288-40.76  c0.322-24.188,11.496-33.024,16.736-35.841c-2.348,7.322-6.983,28.001-6.802,76.609C256.689,252.528,256.962,254.16,257.308,255.17z   M292.634,233.223l-1.36,3.006c-0.626-0.66-1.41-1.724-2.05-3.344c-0.241-0.611-0.898-0.953-1.537-0.776l-4.827,1.277l1.105-2.701  c0.172-0.422,0.111-0.901-0.162-1.265c-0.27-0.366-0.724-0.57-1.166-0.515l-5.859,0.585l2.175-5.908  c2.588,0.756,8.991,2.485,15.565,3.168l-0.958,1.193c-0.346,0.432-0.38,1.033-0.088,1.5c0.294,0.467,0.852,0.698,1.388,0.574  c0.069-0.015,7.027-1.591,11.763-0.916c0.536,0.066,1.061-0.189,1.321-0.661c0.26-0.474,0.197-1.06-0.157-1.468  c-2.765-3.199-10.197-12.127-11.371-14.978c-0.221-0.538-0.776-0.844-1.35-0.795c-0.577,0.069-1.038,0.513-1.129,1.087l-0.65,4.145  c-0.99-0.656-2.308-1.729-3.413-3.317c-0.317-0.456-0.884-0.661-1.419-0.504c-0.533,0.152-0.909,0.626-0.938,1.179  c-0.007,0.127-0.027,0.629,0.003,1.313c-3.335-2.968-8.692-8.382-10.431-13.877c-0.97-3.062-0.894-5.326,0.219-6.551  c0.973-1.068,2.603-1.184,3.457-1.004c0.908,0.194,1.773,0.837,2.313,1.719c0.528,0.864,0.688,1.831,0.449,2.726  c-0.106,0.4-0.017,0.827,0.245,1.149c0.26,0.322,0.666,0.508,1.071,0.479c3.266-0.162,19.692-1.243,22.348-6.624  c0.371-0.752,0.629-1.866,0.081-3.229c1.738-0.992,6.031-2.463,11.592,2.507c0.454,0.407,1.134,0.439,1.631,0.078  c1.281-0.941,3.206-3.204,2.968-5.957c1.937,0.243,5.269,1.223,7.58,4.948c0.213,0.341,0.569,0.564,0.967,0.606  c0.395,0.039,0.791-0.103,1.07-0.391c0.103-0.106,2.205-2.321,3.074-5.058c1.547,0.361,4.613,1.525,7.611,5.291  c0.224,0.282,0.555,0.457,0.914,0.486c0.127,0.002,1.776,0.1,3.907-0.523c-6.542,5.271-17.176,6.349-17.316,6.363  c-0.477,0.046-0.891,0.349-1.076,0.791c-0.184,0.442-0.11,0.952,0.194,1.321l1.846,2.251c-7.32,0.137-10.545-2.512-10.573-2.537  c-0.474-0.412-1.171-0.422-1.662-0.035c-0.489,0.393-0.628,1.078-0.329,1.63l1.604,2.963c-2.878-0.602-5.519-1.945-7.732-3.074  c-2.789-1.421-4.994-2.537-6.926-1.964c-1.444,0.432-2.497,1.736-2.748,3.405c-0.272,1.817,0.469,3.553,1.933,4.53  c0.746,0.498,1.596,0.741,2.451,0.741c1.208,0,2.428-0.484,3.386-1.419c0.783-0.764,1.254-1.692,1.392-2.645  c2.919,1.478,6.47,3.15,10.529,3.324c0.456,0.056,0.908-0.211,1.154-0.607c0.248-0.395,0.263-0.894,0.04-1.304l-0.847-1.564  c2.448,0.825,6.084,1.485,11.066,0.987c0.476-0.047,0.886-0.351,1.07-0.793c0.182-0.442,0.106-0.948-0.196-1.318l-1.986-2.419  c4.066-0.678,12.414-2.64,17.682-7.748c-0.866,2.388-2.279,4.848-4.606,6.196c-0.326,0.189-0.55,0.515-0.621,0.884  c-0.069,0.371,0.029,0.758,0.263,1.053c0.044,0.056,4.236,5.527,2.929,19.827c-2.397-1.232-7.007-4.16-9.613-9.446  c-0.277-0.56-0.906-0.839-1.522-0.671c-0.602,0.174-0.994,0.754-0.93,1.378c0.174,1.68,0.314,4.365,0.162,6.254  c-1.4-1.004-3.361-2.644-4.171-4.437c-0.228-0.508-0.754-0.825-1.308-0.756c-0.553,0.054-1.009,0.454-1.135,0.995  c-0.327,1.41-0.764,3.045-1.119,4.154c-1.291-0.808-3.003-2.085-3.715-3.398c-0.275-0.508-0.852-0.774-1.422-0.646  c-0.565,0.125-0.977,0.612-1.011,1.191c-0.084,1.5-0.282,3.813-0.535,5.412c-1.191-0.731-2.866-1.832-4.105-2.952  c-0.336-0.304-0.806-0.417-1.238-0.282c-0.434,0.128-0.768,0.474-0.884,0.913l-0.665,2.526c-1.113-0.646-2.657-1.677-3.666-2.909  c-0.452-0.555-1.27-0.636-1.822-0.182c-0.555,0.452-0.636,1.269-0.182,1.822c2.111,2.58,5.815,4.284,5.972,4.354  c0.349,0.157,0.744,0.152,1.092-0.008c0.346-0.164,0.601-0.472,0.698-0.842l0.569-2.161c2.1,1.564,4.349,2.797,4.467,2.861  c0.326,0.175,0.71,0.202,1.06,0.083c0.349-0.127,0.628-0.395,0.764-0.739c0.38-0.95,0.646-2.898,0.818-4.624  c1.77,1.537,3.756,2.542,3.879,2.603c0.607,0.302,1.34,0.088,1.69-0.493c0.366-0.612,0.801-1.986,1.164-3.288  c2.099,2.364,4.918,3.983,5.075,4.073c0.326,0.184,0.72,0.216,1.078,0.093c0.356-0.128,0.638-0.405,0.773-0.759  c0.391-1.027,0.521-2.652,0.533-4.25c2.467,3.015,5.323,4.934,7.341,6.048c0,0.032-0.015,0.06-0.012,0.092  c0.014,0.228,0.297,4.565,1.039,8.024c-2.175-0.805-5.67-2.446-8.901-5.487c-0.31-0.294-0.749-0.412-1.164-0.322  c-0.418,0.091-0.764,0.383-0.925,0.778l-0.997,2.462l-4.167-3.023c-0.368-0.267-0.852-0.322-1.274-0.14  c-0.42,0.181-0.714,0.569-0.773,1.022l-0.376,2.89c-0.906-0.656-1.992-1.523-2.769-2.396c-0.479-0.538-1.301-0.584-1.829-0.108  c-0.535,0.476-0.584,1.294-0.108,1.829c1.836,2.065,4.916,3.948,5.046,4.025c0.376,0.231,0.84,0.25,1.233,0.061  c0.396-0.189,0.668-0.565,0.725-1l0.364-2.806l3.744,2.716c0.321,0.233,0.734,0.302,1.117,0.196c0.385-0.11,0.695-0.39,0.845-0.758  l0.933-2.305c2.398,1.972,4.782,3.264,6.722,4.121c0.009,0.807,0.136,4.238,1.585,6.945c-2.374-0.062-6.094-0.479-9.539-2.202  c-0.582-0.297-1.304-0.103-1.665,0.454l-1.876,2.892l-7.761-5.206c-0.331-0.224-0.747-0.285-1.122-0.155  c-0.378,0.121-0.68,0.412-0.817,0.785l-1.193,3.249c-1.429-1.603-3.477-3.858-4.231-4.462c-0.528-0.425-1.297-0.366-1.76,0.132  c-0.022,0.024-1.834,1.965-4.005,3.474l-1.496-4.017c-0.25-0.668-0.999-1.012-1.667-0.763c-0.671,0.25-1.012,0.997-0.763,1.667  l2.052,5.507c0.132,0.354,0.412,0.633,0.766,0.763c0.353,0.13,0.747,0.101,1.078-0.083c2.03-1.127,3.928-2.809,5.009-3.852  c1.201,1.24,3.221,3.501,4.506,4.975c0.302,0.344,0.761,0.51,1.211,0.422c0.45-0.083,0.823-0.396,0.982-0.827l1.375-3.744  l7.484,5.021c0.216,0.143,0.467,0.219,0.722,0.219c0.086,0,0.174-0.008,0.26-0.027c0.341-0.069,0.638-0.272,0.827-0.564l1.979-3.052  c3.326,1.436,6.654,1.862,9.041,1.963c-0.014,0.308,0.07,0.623,0.281,0.88c0.315,0.386,0.96,1.149,1.739,1.939l-3.241,0.049  c-0.361,0.005-0.704,0.162-0.945,0.432c-0.241,0.268-0.359,0.626-0.326,0.987l0.484,5.072c-1.788-0.402-4.626-1.181-6.474-2.391  c-0.429-0.28-0.973-0.287-1.402-0.014l-5.664,3.573l-2.902-7.891c-0.179-0.486-0.628-0.818-1.144-0.847  c-0.564-0.04-1,0.251-1.232,0.715l-3.18,6.359l-2.229-3.553c-0.231-0.368-0.631-0.596-1.065-0.607  c-0.432,0.007-0.842,0.196-1.093,0.55c-0.022,0.032-1.825,2.58-3.894,4.483l-1.478-4.668c-0.15-0.472-0.555-0.818-1.046-0.891  c-0.494-0.066-0.979,0.14-1.259,0.55c-0.02,0.03-1.616,2.35-3.643,4.486l-0.366-5.78c-0.027-0.439-0.277-0.835-0.663-1.049  c-0.385-0.216-0.854-0.219-1.242-0.01c-0.557,0.299-1.588,0.839-2.666,1.372c1.525-3.165,3.253-7.611,2.271-9.902  c-0.293-0.684-0.844-1.137-1.504-1.417c-0.041-0.029-0.068-0.07-0.113-0.094c-0.061-0.032-0.126-0.035-0.189-0.057  c-0.044-0.013-0.073-0.048-0.119-0.059c-0.051-0.013-0.091-0.008-0.141-0.019c-0.027-0.004-0.052-0.009-0.079-0.011  c-1.757-0.366-2.955,0.125-3.647,0.629c-0.707,0.516-1.173,1.203-1.478,1.864c-0.805-0.778-1.778-1.937-2.406-3.433  c-0.199-0.476-0.661-0.788-1.176-0.795C293.316,232.426,292.848,232.754,292.634,233.223z M282.78,218.764  c7.005,3.376,15.612,3.75,17.965,3.793c1.126,1.399,2.224,2.734,3.106,3.784c-2.153,0.008-4.348,0.251-6.092,0.513l0.307-0.383  c0.304-0.378,0.369-0.894,0.174-1.338c-0.196-0.442-0.624-0.739-1.107-0.768c-8.797-0.523-18.484-3.58-18.58-3.612  c-0.004-0.001-0.008,0-0.011-0.001c0,0-0.004-0.003-0.007-0.004c-1.444-0.435-2.284-1.178-2.369-2.087  c-0.066-0.717,0.332-1.301,0.574-1.426C278.137,216.513,281.079,217.939,282.78,218.764z M295.022,219.495  c0.28-0.201,0.486-0.489,0.541-0.834l0.38-2.429c0.777,1.13,1.718,2.381,2.689,3.641  C297.629,219.803,296.395,219.685,295.022,219.495z M292.74,219.128c-0.632-0.117-1.281-0.253-1.94-0.404  c0.058-0.278,0.025-0.574-0.109-0.842c-0.037-0.074-0.071-0.152-0.105-0.233C291.407,218.321,292.164,218.802,292.74,219.128z   M309.829,204.983c-0.589,0.58-1.623,1.021-2.59,0.378c-0.741-0.494-0.903-1.351-0.808-1.989c0.076-0.498,0.363-1.137,0.928-1.306  c0.108-0.032,0.231-0.047,0.366-0.047c0.621,0,1.508,0.326,2.521,0.79l0.002,0.003C310.904,203.851,310.015,204.803,309.829,204.983  z M359.095,224.379c0.371,0.236,0.84,0.265,1.243,0.079c0.4-0.187,0.677-0.567,0.734-1.006c0.216-1.63,0.614-2.63,1.186-2.973  c1.033-0.619,3.533,0.329,6.425,1.424c2.203,0.835,4.947,1.873,8.073,2.639c8.157,1.998,17.747,0.282,26.206-1.233  c2.858-0.511,5.611-1.004,8.171-1.331c5.352-0.682,10.808,1.559,12.173,4.999c1.031,2.596-0.553,5.591-4.461,8.432  c-10.832,7.877-62.702,4.379-67.99,4c-1.407-1.34-1.957-4.081-2.121-5.888c0.855,0.273,1.429,0.409,1.502,0.425  c0.088,0.019,0.177,0.027,0.267,0.027c0.371,0,0.731-0.16,0.98-0.447c0.307-0.358,0.398-0.852,0.236-1.294  c-0.808-2.205-1.252-6.279-1.437-8.365c0.342,0.094,0.705,0.06,1.009-0.128c0.337-0.208,0.56-0.558,0.607-0.952  c1.532-13.018-1.141-19.803-2.541-22.346c0.34-0.26,0.659-0.54,0.962-0.832c0.094,6.153,3.662,11.099,5.122,12.867  C352.834,218.376,356.617,222.808,359.095,224.379z"/>
    <path style="fill:#FFD250;"
          d="M229.129,157.662c-0.503-10.438-2.981-27.32-10.902-27.706c-4.464-0.206-6.664,2.542-6.755,2.661  c-0.262,0.339-0.69,0.53-1.107,0.508l-3.027-0.182l0.542,2.006c0.13,0.484-0.034,1.004-0.417,1.328  c-0.184,0.155-4.464,3.872-1.859,8.606c1.984,3.607,8.397,5.314,13.079,6.56c2.09,0.557,3.897,1.038,5.07,1.611  C225.842,154.075,227.673,155.799,229.129,157.662z"/>
    <path style="fill:#464655;"
          d="M218.352,127.368c-4.555-0.223-7.39,2.048-8.456,3.131l-4.199-0.251  c-0.398-0.032-0.818,0.154-1.081,0.476c-0.263,0.322-0.356,0.752-0.248,1.156l0.806,2.991c-2.058,2.1-4.479,6.463-1.841,11.26  c2.517,4.579,9.549,6.45,14.683,7.816c1.96,0.521,3.653,0.972,4.599,1.434c3.035,1.485,5.473,4.861,6.742,7.526  c0.218,0.459,0.678,0.739,1.169,0.739c0.093,0,0.186-0.01,0.28-0.03c0.589-0.13,1.009-0.65,1.016-1.252  C231.835,160.962,232,128.032,218.352,127.368z M218.682,151.441c-4.682-1.245-11.095-2.952-13.079-6.56  c-2.605-4.734,1.675-8.451,1.859-8.606c0.383-0.324,0.547-0.844,0.417-1.328l-0.542-2.006l3.027,0.182  c0.417,0.022,0.845-0.169,1.107-0.508c0.091-0.118,2.291-2.866,6.755-2.661c7.921,0.386,10.399,17.268,10.902,27.706  c-1.456-1.863-3.287-3.587-5.377-4.609C222.58,152.479,220.773,151.998,218.682,151.441z"/>
    <path style="fill:#FFD250;"
          d="M445.713,157.662c0.503-10.438,2.981-27.32,10.902-27.706c4.464-0.206,6.664,2.542,6.755,2.661  c0.262,0.339,0.69,0.53,1.107,0.508l3.027-0.182l-0.542,2.006c-0.13,0.484,0.034,1.004,0.417,1.328  c0.184,0.155,4.464,3.872,1.859,8.606c-1.984,3.607-8.397,5.314-13.079,6.56c-2.09,0.557-3.897,1.038-5.07,1.611  C449,154.075,447.169,155.799,445.713,157.662z"/>
    <path style="fill:#464655;"
          d="M443.021,162.364c0.007,0.602,0.427,1.122,1.016,1.252c0.094,0.02,0.187,0.03,0.28,0.03  c0.491,0,0.952-0.28,1.169-0.739c1.269-2.666,3.707-6.042,6.742-7.526c0.946-0.462,2.639-0.913,4.599-1.434  c5.134-1.367,12.166-3.238,14.683-7.816c2.639-4.796,0.218-9.159-1.841-11.26l0.806-2.991c0.108-0.403,0.015-0.833-0.248-1.156  c-0.263-0.322-0.683-0.508-1.081-0.476l-4.199,0.251c-1.066-1.083-3.901-3.354-8.456-3.131  C442.842,128.032,443.007,160.962,443.021,162.364z M451.09,153.052c-2.09,1.022-3.921,2.747-5.377,4.609  c0.503-10.438,2.981-27.32,10.902-27.706c4.464-0.206,6.664,2.542,6.755,2.661c0.262,0.339,0.69,0.53,1.107,0.508l3.027-0.182  l-0.542,2.006c-0.13,0.484,0.034,1.004,0.417,1.328c0.184,0.155,4.464,3.872,1.859,8.606c-1.984,3.607-8.397,5.314-13.079,6.56  C454.069,151.998,452.263,152.479,451.09,153.052z"/>
    <path style="fill:#FFD250;"
          d="M445.713,350.628c0.503,10.438,2.981,27.32,10.902,27.706c4.464,0.206,6.664-2.542,6.755-2.661  c0.262-0.339,0.69-0.53,1.107-0.508l3.027,0.182l-0.542-2.006c-0.13-0.484,0.034-1.004,0.417-1.328  c0.184-0.155,4.464-3.872,1.859-8.606c-1.984-3.607-8.397-5.314-13.079-6.56c-2.09-0.557-3.897-1.038-5.07-1.611  C449,354.215,447.169,352.49,445.713,350.628z"/>
    <path style="fill:#464655;"
          d="M456.491,380.922c4.555,0.223,7.39-2.048,8.456-3.131l4.199,0.251  c0.398,0.032,0.818-0.154,1.081-0.476c0.263-0.322,0.356-0.752,0.248-1.156l-0.806-2.991c2.058-2.1,4.479-6.463,1.841-11.26  c-2.517-4.579-9.549-6.45-14.683-7.816c-1.96-0.521-3.653-0.972-4.599-1.434c-3.035-1.485-5.473-4.861-6.742-7.526  c-0.218-0.459-0.678-0.739-1.169-0.739c-0.093,0-0.186,0.01-0.28,0.03c-0.589,0.13-1.009,0.65-1.016,1.252  C443.007,347.328,442.842,380.257,456.491,380.922z M456.16,356.848c4.682,1.245,11.095,2.952,13.079,6.56  c2.605,4.734-1.675,8.451-1.859,8.606c-0.383,0.324-0.547,0.844-0.417,1.328l0.542,2.006l-3.027-0.182  c-0.417-0.022-0.845,0.169-1.107,0.508c-0.091,0.118-2.291,2.866-6.755,2.661c-7.921-0.386-10.399-17.268-10.902-27.706  c1.456,1.863,3.286,3.587,5.377,4.609C452.263,355.811,454.069,356.291,456.16,356.848z"/>
    <path style="fill:#FFD250;"
          d="M229.129,350.628c-0.503,10.438-2.981,27.32-10.902,27.706c-4.464,0.206-6.664-2.542-6.755-2.661  c-0.262-0.339-0.69-0.53-1.107-0.508l-3.027,0.182l0.542-2.006c0.13-0.484-0.034-1.004-0.417-1.328  c-0.184-0.155-4.464-3.872-1.859-8.606c1.984-3.607,8.397-5.314,13.079-6.56c2.09-0.557,3.897-1.038,5.07-1.611  C225.842,354.215,227.673,352.49,229.129,350.628z"/>
    <path style="fill:#464655;"
          d="M231.822,345.926c-0.007-0.602-0.427-1.122-1.016-1.252c-0.094-0.02-0.187-0.03-0.28-0.03  c-0.491,0-0.952,0.28-1.169,0.739c-1.269,2.666-3.707,6.042-6.742,7.526c-0.946,0.462-2.639,0.913-4.599,1.434  c-5.134,1.367-12.166,3.238-14.683,7.816c-2.639,4.797-0.218,9.159,1.841,11.26l-0.806,2.991c-0.108,0.403-0.015,0.833,0.248,1.156  c0.263,0.322,0.683,0.508,1.081,0.476l4.199-0.251c1.066,1.083,3.901,3.354,8.456,3.131  C232,380.257,231.835,347.328,231.822,345.926z M223.752,355.237c2.09-1.022,3.921-2.747,5.377-4.609  c-0.503,10.438-2.981,27.32-10.902,27.706c-4.464,0.206-6.664-2.542-6.755-2.661c-0.262-0.339-0.69-0.53-1.107-0.508l-3.027,0.182  l0.542-2.006c0.13-0.484-0.034-1.004-0.417-1.328c-0.184-0.155-4.464-3.872-1.859-8.606c1.984-3.607,8.397-5.314,13.079-6.56  C220.773,356.291,222.58,355.811,223.752,355.237z"/>
    <g>
</g>
    <g>
</g>
    <g>
</g>
    <g>
</g>
    <g>
</g>
    <g>
</g>
    <g>
</g>
    <g>
</g>
    <g>
</g>
    <g>
</g>
    <g>
</g>
    <g>
</g>
    <g>
</g>
    <g>
</g>
    <g>
</g>
</svg>
