<?xml version="1.0" encoding="iso-8859-1"?>
<!-- Generator: Adobe Illustrator 19.0.0, SVG Export Plug-In . SVG Version: 6.00 Build 0)  -->
<svg xmlns="http://www.w3.org/2000/svg" xmlns:xlink="http://www.w3.org/1999/xlink" version="1.1" id="Layer_1" x="0px"
     y="0px" viewBox="0 0 512 512" style="enable-background:new 0 0 512 512;" xml:space="preserve">
<rect x="31" y="26.947" style="fill:#C8414B;" width="450" height="458.11"/>
    <path style="fill:#E6B432;" d="M512,0H0v512h512V0z M480,485.053H31V26.947h449V485.053z"/>
    <circle style="fill:#41479B;" cx="366.55" cy="340.51" r="20.504"/>
    <g>
	<path style="fill:#E6B432;"
          d="M402.532,222.79c-15.09,12.686-25.238,13.22-25.238,13.22c26.841-10.95,24.036-31.781,24.036-31.781   c-12.686,16.692-25.639,21.366-25.639,21.366c26.974-18.294,22.701-42.865,22.701-42.865   c-8.813,19.496-19.963,27.108-19.963,27.108c22.434-29.845,11.417-49.074,11.417-49.074c-8.813,27.642-16.225,35.654-16.225,35.654   c17.226-46.07,2.471-59.357,2.471-59.357c0,24.704-9.214,38.859-9.214,38.859c9.615-32.583-5.475-51.278-5.475-51.278   s-0.141,26.563-5.258,40.478c-1.228-1.864-1.953-1.619-1.953-1.619c-2.601,17.063-11.771,29.074-15.73,33.595   c-0.879-4.253-3.523-5.555-3.523-5.555s-0.477,4.175-4.223,10.331c-2.454,4.033-14.048,13.44-15.917,21.719   c-1.499,6.638,5.074,12.152,7.211,13.487c2.136,1.335,4.407,3.739,3.472,7.612c-0.935,3.872-7.878,3.472-12.819,3.338   c-4.941-0.133-5.608,8.012-11.083,7.745l-0.928,6.075l-2.143,0.469c0,0-22.434,44.704-24.344,59.916l-16.518,2.178l-16.518-2.178   c-1.91-15.212-24.344-59.916-24.344-59.916l-2.143-0.469l-0.928-6.075c-5.475,0.267-6.143-7.878-11.083-7.745   c-4.941,0.133-11.885,0.534-12.819-3.338c-0.935-3.873,1.335-6.276,3.472-7.612s8.71-6.849,7.211-13.487   c-1.869-8.279-13.463-17.686-15.917-21.719c-3.746-6.156-4.223-10.331-4.223-10.331s-2.644,1.302-3.523,5.555   c-3.959-4.521-13.129-16.533-15.73-33.595c0,0-0.725-0.245-1.953,1.619c-5.116-13.915-5.258-40.478-5.258-40.478   s-15.09,18.695-5.475,51.278c0,0-9.214-14.155-9.214-38.859c0,0-14.756,13.287,2.471,59.357c0,0-7.411-8.012-16.225-35.654   c0,0-11.017,19.229,11.417,49.074c0,0-11.15-7.612-19.963-27.108c0,0-4.273,24.57,22.701,42.865c0,0-12.953-4.674-25.639-21.366   c0,0-2.804,20.832,24.036,31.781c0,0-10.149-0.534-25.238-13.22c0,0-2.67,18.428,32.316,27.909c0,0-14.288-0.267-28.844-10.015   c0,0-0.401,18.161,29.511,21.766c0,0-9.882,1.469-20.965-2.537c0,0,0.401,14.689,26.44,16.558c0,0-10.282,0.801-16.959-0.801   c0,0,0.668,15.09,21.232,12.552c0,0-6.944,2.27-9.214,2.938c0,0,0.401,12.319,21.833,7.912c0,0-3.806,2.37-9.014,3.171   c0,0,4.407,10.282,22.301,5.742l-3.672,4.006c0,0,13.821,8.012,24.437-3.005l-3.806,6.81c0,0,9.014,3.405,14.622-5.408   c0,0-1.536,13.22-20.231,15.624c0,0,0.668,2.804,1.469,3.872c0,0-1.202,2.27-12.018,4.14c0,0,2.27,3.472,4.673,4.54   c0,0-4.673,4.006-7.211,4.807c0,0,4.006,2.003,6.544,2.404c0,0-5.608,5.475-12.553,5.608c-6.944,0.133-19.363-0.668-19.363-0.668   s-0.133-6.677-3.338-12.419s-4.273-6.176-4.273-6.176s0.701-4.607-1.302-6.51s-3.105-2.804-3.105-2.804s1.068-9.214-1.87-14.956   c-2.938-5.742-13.353-18.294-13.887-27.642c-0.534-9.347-0.134-12.819-0.134-12.819l-3.205,0.801l-2.136-4.407l3.605-0.401   l-1.469-6.677l-4.941,1.869l-0.668-5.742l-5.875,2.404l2.938,5.208l-5.208,1.469l3.071,6.142l4.006-2.537l1.068,5.341   c0,0-2.404,0.534-3.739,2.671c0,0,6.607,4.386,8.546,9.615c3.071,8.279,2.137,26.974,6.544,32.583   c4.407,5.608,7.878,9.481,7.878,9.481s-1.235,3.806,0.167,5.909c1.402,2.103,3.405,2.704,3.405,2.704s-1.202,8.513,1.903,14.121   s4.907,7.011,4.907,7.011s-11.317,6.91-3.305,14.923c0,0-1.068,7.277,6.543,9.014c0,0,0.401,5.742,6.944,5.074   c0,0,3.205-0.935,4.006,0.668c0.801,1.602,0,10.816,0,10.816s2.938-0.267,4.807-1.602l5.875,2.938l0.134-6.543l7.344-2.938   c0,0-3.205,0.534-9.748-5.608c0,0,1.068-0.668,1.869-5.876c0,0,5.208-4.139,6.276-7.478c1.068-3.338,8.413-10.683,16.959-13.086   l1.169,5.208c0,0,12.218-10.816,17.326-11.417l4.206,5.542c0,0,15.757-23.369,22.701-27.508c-0.534,1.869,3.338,2.137-5.275,11.751   c-8.613,9.615-3.272,17.226-3.272,17.226c-5.341,4.407-4.273,8.413-4.941,12.953s-18.428,16.291-18.428,16.291   c5.608,7.077,11.885,5.475,11.885,5.475c-3.472,2.27-2.404,9.882-2.404,9.882c5.074,1.335,10.149-0.935,10.149-0.935   c-1.736,4.807,0.935,8.146,0.935,8.146c3.205-2.003,10.55-3.205,10.55-3.205c-0.935,8.279,4.407,12.686,4.407,12.686l4.673-5.074   c0.801,9.347,9.081,14.689,9.081,14.689s8.279-5.342,9.081-14.689l4.673,5.074c0,0,5.342-4.407,4.407-12.686   c0,0,7.345,1.202,10.55,3.205c0,0,2.67-3.338,0.935-8.146c0,0,5.074,2.27,10.149,0.935c0,0,1.068-7.612-2.404-9.882   c0,0,6.276,1.602,11.885-5.475c0,0-17.76-11.751-18.428-16.291s0.401-8.546-4.941-12.953c0,0,5.341-7.612-3.272-17.226   c-8.613-9.615-4.741-9.882-5.275-11.751c6.944,4.14,22.701,27.508,22.701,27.508l4.206-5.542   c5.108,0.601,17.326,11.417,17.326,11.417l1.169-5.208l0.22-0.24c6.371,3.43,16.893,8.071,21.146,11.323   c4.54,3.472,8.279,3.739,19.229,0s31.323-9.489,28.31-16.291c-0.164-0.371-0.351-0.62-0.53-0.909   c0.479-1.757,0.675-4.823-2.541-7.504c0,0,0.038,0.747,0.012,1.704l-10.439-3.89c-0.346-0.923-0.861-1.829-1.858-2.621   c0,0,0.016,0.802-0.128,1.881l-2.678-0.998l5.343-15.033c-0.404-0.226-0.859-0.352-1.278-0.55c0.108-1.361,0.366-3.244,0.762-5.211   c1.305,0.456,2.497,1.02,3.361,1.727l1.508-5.505c0,0-1.621-0.106-3.761-0.506c0.541-1.66,1.181-3.151,1.943-4.114l-7.077-2.137   c0,0,0.183,2.144,0.057,4.821c-1.35-0.548-2.64-1.244-3.681-2.136l-1.659,6.108c0.57,0.034,2.502,0.201,4.741,0.599   c-0.404,1.793-1.116,3.384-2.139,4.578c-0.253-0.034-0.485-0.124-0.741-0.149l-5.189,14.599l-14.073-5.245   c-0.604,0.95-1.068,1.984-1.504,3.032c0.075-0.153,0.141-0.39,0.22-0.487c0,0-5.445,2.847-5.37,7.031   c-1.002,0.381-1.881,1.133-2.377,2.436c-1.602,4.206,8.212,13.621,5.809,14.822c-2.359,1.18-14.689-8.975-16.664-10.68   c2.541-0.494,6.248-2.34,6.248-2.34c-2.537-0.801-7.211-4.807-7.211-4.807c2.404-1.068,4.673-4.54,4.673-4.54   c-10.816-1.87-12.018-4.14-12.018-4.14c0.801-1.068,1.469-3.872,1.469-3.872c-18.695-2.404-20.231-15.624-20.231-15.624   c5.608,8.813,14.622,5.408,14.622,5.408l-3.806-6.81c10.616,11.017,24.437,3.005,24.437,3.005l-3.672-4.006   c17.894,4.54,22.301-5.742,22.301-5.742c-5.208-0.801-9.014-3.171-9.014-3.171c21.432,4.407,21.833-7.912,21.833-7.912   c-2.27-0.668-9.214-2.938-9.214-2.938c20.564,2.537,21.232-12.552,21.232-12.552c-6.677,1.602-16.959,0.801-16.959,0.801   c26.039-1.87,26.44-16.558,26.44-16.558c-11.084,4.006-20.965,2.537-20.965,2.537c29.912-3.605,29.511-21.766,29.511-21.766   c-14.555,9.748-28.844,10.015-28.844,10.015C405.202,241.218,402.532,222.79,402.532,222.79z M372.186,354.89   c-1.426-2.318,1.974-4.388,3.505-6.595l5.918,2.205C379.598,352.895,373.656,357.279,372.186,354.89z M368.231,345.515   c-1.919,2.974-3.255,6.311-9.165,6.47c-7.411,0.2-8.613-6.41-10.215-10.015c-0.467-1.051-1.273-1.845-2.198-2.389   c-0.004-0.646,0.031-1.358,0.088-2.075L368.231,345.515z"/>
        <path style="fill:#E6B432;"
              d="M255.442,204.429c0,0-9.514-8.112-12.319-12.519c0,0,3.205-1.302,4.807-3.305   c0,0-8.613-4.607-13.22-9.314c0,0,3.005-0.501,5.308-2.404c0,0-7.735-1.397-11.658-7.732c8.944-3.053,5.95-11.397,5.95-11.397   c-1.803,2.404-9.214,5.408-17.226,2.003s-16.825-1.002-16.825,3.405c0,0-18.027-5.208-13.52,12.219c0,0,2.904-6.51,9.314-4.106   c6.41,2.404,12.92,10.616,12.92,10.616s-4.006,2.203-11.417-0.2c0,0,3.005,11.517,16.525,5.709c0,0,5.341,2.871,5.608,11.283   c0,0,2.27-1.202,3.739-3.872c0,0,2.137,8.146-0.667,14.822c0,0,3.739-0.668,4.941-1.87c0,0,1.068,7.077-3.605,12.819   c0,0,20.531,9.782,33.551-0.935c0,0-4.907-5.608-6.51-10.816C251.136,208.836,253.84,207.734,255.442,204.429z"/>
        <path style="fill:#E6B432;"
              d="M315.033,163.167c0-4.407-8.813-6.81-16.825-3.405c-8.012,3.405-15.423,0.401-17.226-2.003   c0,0-2.994,8.344,5.95,11.397c-3.923,6.335-11.658,7.732-11.658,7.732c2.303,1.903,5.308,2.404,5.308,2.404   c-4.607,4.707-13.22,9.314-13.22,9.314c1.602,2.003,4.807,3.305,4.807,3.305c-2.804,4.407-12.319,12.519-12.319,12.519   c1.602,3.305,4.307,4.407,4.307,4.407c-1.602,5.208-6.51,10.816-6.51,10.816c13.02,10.716,33.551,0.935,33.551,0.935   c-4.674-5.742-3.605-12.819-3.605-12.819c1.202,1.202,4.941,1.87,4.941,1.87c-2.804-6.677-0.667-14.822-0.667-14.822   c1.469,2.67,3.739,3.872,3.739,3.872c0.267-8.413,5.608-11.283,5.608-11.283c13.52,5.809,16.525-5.709,16.525-5.709   c-7.411,2.404-11.417,0.2-11.417,0.2s6.51-8.212,12.92-10.616c6.41-2.404,9.314,4.106,9.314,4.106   C333.06,157.959,315.033,163.167,315.033,163.167z"/>
        <path style="fill:#E6B432;"
              d="M306.87,269.56c-1.758-10.235-3.273-19.075,1.142-29.204l0.823-1.892l-17.486-20.08l-2.067,0.689   c-0.179,0.061-18.456,6.036-30.174,0.175l-1.461-0.731l-1.461,0.731c-11.664,5.845-29.989-0.115-30.178-0.179l-2.067-0.683   l-17.483,20.077l0.823,1.892c4.415,10.129,2.9,18.97,1.142,29.204c-1.656,9.664-3.535,20.619-0.23,33.98   c3.589,14.503,15.671,19.659,26.33,24.212c8.215,3.506,15.974,6.818,20.361,13.77l2.763,4.38l2.763-4.38   c4.387-6.952,12.146-10.263,20.361-13.77c10.659-4.553,22.741-9.708,26.33-24.212C310.405,290.179,308.525,279.224,306.87,269.56z    M214.059,239.679l12.002-13.779c5.436,1.493,20.131,4.728,31.584-0.134c11.45,4.862,26.145,1.627,31.584,0.134l12.002,13.779   c-4.214,11.099-2.555,20.776-0.804,30.985c1.311,7.649,2.615,15.53,1.521,24.606h-88.606c-1.095-9.076,0.21-16.957,1.521-24.606   C216.615,260.455,218.274,250.778,214.059,239.679z M278.204,321.741c-7.427,3.171-15.068,6.432-20.559,12.621   c-5.491-6.189-13.132-9.45-20.559-12.621c-10.422-4.45-19.414-8.339-22.378-19.259h85.873   C297.618,313.402,288.627,317.291,278.204,321.741z"/>
</g>
    <path style="fill:#41479B;"
          d="M214.059,239.679l12.002-13.779c5.436,1.493,20.131,4.728,31.584-0.134  c11.45,4.862,26.145,1.627,31.584,0.134l12.002,13.779c-4.214,11.099-2.555,20.776-0.804,30.985  c1.311,7.649,2.615,15.53,1.521,24.606h-88.606c-1.095-9.076,0.21-16.957,1.521-24.606  C216.615,260.455,218.274,250.778,214.059,239.679z"/>
    <path style="fill:#73AF00;"
          d="M214.248,300.577c0.103,0.469,0.169,0.919,0.287,1.394c2.808,11.342,11.957,15.247,22.553,19.771  c7.427,3.171,15.068,6.432,20.559,12.621c5.491-6.189,13.131-9.45,20.559-12.621c10.595-4.524,19.745-8.429,22.553-19.771  c0.118-0.475,0.183-0.926,0.287-1.394H214.248z"/>
    <g>
	<path style="fill:#E6B432;"
          d="M296.849,262.701c0-5.908-5.615-6.84-10.72-6.738s-12.573-0.831-12.761-4.798   c-0.118-2.474,4.033-2.705,6.738-1.838c1.57,0.503,11.332,2.246,14.395-4.288c0,0-3.571,0.115-7.337-0.73   c-2.904-0.652-14.816,0.832-16.96,5.426c-2.144,4.594,4.77,9.179,12.733,9.179s9.056,1.594,8.994,3.536   c-0.082,2.551-6.396,3.274-10.026,3.24c-5.712-2.075-19.044-0.449-19.107-0.703c-0.077-0.307-3.075-5.457-3.075-5.457   s5.458-0.384,6.15-1.384c0.692-0.999-4.141-4.837-4.141-4.837s4.064-1.62,4.218-2.773c0.169-1.268-3.299-4.271-3.299-4.271   s1.34-1.321,2.348-3.573c0.721-1.611-5.002-2.042-5.002-2.042c0.306-1.225,0.189-2.413-1.327-2.961   c-1.172-0.423-5.513,1.225-8.474,1.225s-4.084,2.144-4.084,2.144s-5.207,0.613-5.921,1.225c-0.715,0.613,0.204,4.594,0.204,4.594   c-2.654-0.408-3.879-2.756-3.879-2.756c-1.327,6.023,4.9,6.636,4.9,6.636l1.021,3.267c0,0,0,0,2.552,0.306s1.327,2.756-2.654,2.756   c-3.982,0-5.672,4.749-5.672,4.749c-2.767,0.077-4.305-2.152-4.92-4.996c-0.677-3.131-0.278-7.94,0.231-10.992   c0.615-3.69-1.23-4.766-1.23-4.766l-1.23,3.075c-0.077-3.152-2.844-3.459-2.844-3.459l-0.461,3.844   c-1.384-2.537-3.767-1.384-3.767-1.384s2.306,8.302,2.229,8.763s-0.845,0.845-1.922-0.307c-1.076-1.153-1.845-0.384-1.845-0.384   c1.153,8.302,5.605,7.084,5.605,7.084s0.199,2.6,1.543,7.88c1.435,5.637,7.339,4.575,7.339,4.575c0,1.838,1.429,4.492,1.838,10.617   c0.408,6.125-5.207,10.413-5.207,10.413c-5.105-0.102-4.594,4.9-4.594,4.9h14.089c0-13.027,5.599-15.261,5.599-15.261   c8.302,0.384,16.296-3.075,16.296-3.075c-1.23,4.996,0.923,7.072,0.923,7.072c3.382-0.461,1.691,6.226,0.691,6.226   c-0.999,0-3.075,0-4.305,0c-1.23,0-4.766,3.844-4.766,3.844h14.605c0,0,2.229-3.229,2.998-4.843   c0.768-1.614-1.691-3.844-1.845-5.535s2.537-2.767,2.537-2.767c2.844,3.997,9.378,4.228,9.378,4.228l-0.154-2.998   c0,0,3.382,1.153,4.151,2.152c0.768,0.999,0.615,5.611-3.459,6.15c-4.074,0.538-4.382,3.459-4.382,3.459s9.301,0,11.146,0   s3.305-3.459,3.305-4.766c0-1.307,0-9.839,0-11.684s-1.537-1.614-5.15-1.998c-3.282-0.349-2.968-3.939-4.32-8.107   C289.512,268.634,296.849,267.596,296.849,262.701z"/>
        <path style="fill:#E6B432;"
              d="M295.984,123.015c-0.914-8.061-7.34-18.325-31.815-23.136c-0.081-2.6-1.681-4.805-3.967-5.733   v-4.491h4.006v-4.807h-4.006v-4.006h-4.807v4.006h-4.006v4.807h4.006v4.491c-2.286,0.928-3.886,3.133-3.967,5.733   c-24.475,4.811-30.901,15.075-31.815,23.136c-1.14,10.051,6.058,19.581,12.547,23.234v5.1h51.278v-5.1   C289.926,142.597,297.124,133.066,295.984,123.015z M269.141,138.529h-7.177v-29.562c5.916,2.672,9.576,6.771,10.641,12.399   C273.932,128.375,271.13,135.521,269.141,138.529z M242.991,121.363c1.065-5.628,4.725-9.726,10.641-12.397v29.564h-7.178   C244.463,135.521,241.662,128.372,242.991,121.363z M237.058,113.244c-1.179,2.361-1.929,4.723-2.313,6.892   c-1.161,6.567,0.17,13.24,2.367,18.393h-1.685c-3.595-2.476-8.215-8.565-7.534-14.575   C228.37,119.751,231.556,116.143,237.058,113.244z M280.169,138.529h-1.687c2.198-5.152,3.529-11.825,2.37-18.39   c-0.384-2.17-1.135-4.534-2.315-6.896c5.502,2.899,8.69,6.508,9.166,10.711C288.384,129.964,283.764,136.053,280.169,138.529z"/>
</g>
    <g>
</g>
    <g>
</g>
    <g>
</g>
    <g>
</g>
    <g>
</g>
    <g>
</g>
    <g>
</g>
    <g>
</g>
    <g>
</g>
    <g>
</g>
    <g>
</g>
    <g>
</g>
    <g>
</g>
    <g>
</g>
    <g>
</g>
</svg>
